example4/buttons_display_tb.vcd
$date
    Tue Apr 10 22:12:48 2018
$end
$version
    MyHDL 1.0dev
$end
$timescale
    1ns
$end

$scope module buttons_display_tb $end
$var reg 1 ! sw2 $end
$var reg 1 " clk $end
$var reg 4 # sw3 $end
$var reg 1 $ sw1 $end
$var reg 1 % d6 $end
$var reg 1 & d7 $end
$var reg 1 ' d4 $end
$var reg 1 ( d5 $end
$var reg 1 ) d2 $end
$var reg 1 * d3 $end
$var reg 1 + d0 $end
$var reg 1 , d1 $end
$scope module dut $end
$var reg 1 - d7_o $end
$var reg 1 . sw2 $end
$var reg 1 / d2_o $end
$var reg 1 $ sw1_i $end
$var reg 1 ! sw2_i $end
$var reg 1 0 d0_o $end
$var reg 1 1 d3_o $end
$var reg 1 2 d4_o $end
$var reg 4 # sw3_i $end
$var reg 1 3 sw1 $end
$var reg 1 4 d1_o $end
$var reg 7 5 sw1_digit $end
$var reg 1 " clk_i $end
$var reg 1 6 d5_o $end
$var reg 1 7 d6_o $end
$var reg 4 8 sw3 $end
$var reg 7 9 sw2_digit $end
$scope module drvrs $end
$var reg 1 : drvrs(0) $end
$var reg 1 ; drvrs(1) $end
$var reg 1 < drvrs(2) $end
$var reg 1 = drvrs(3) $end
$var reg 1 > drvrs(4) $end
$var reg 1 ? drvrs(5) $end
$var reg 1 @ drvrs(6) $end
$var reg 1 A drvrs(7) $end
$upscope $end
$scope module display $end
$var reg 1 A d7_o $end
$var reg 1 : d0_o $end
$var reg 1 ? d5_o $end
$var reg 3 B seg_cntr $end
$var reg 1 C blank $end
$var reg 1 @ d6_o $end
$var reg 1 D initialized $end
$var reg 8 E digit_shf $end
$var reg 1 < d2_o $end
$var reg 7 9 digit8_i $end
$var reg 7 F segments $end
$var reg 1 = d3_o $end
$var reg 1 ; d1_o $end
$var reg 1 " clk_i $end
$var reg 7 G seg_mask $end
$var reg 7 5 digit1_i $end
$var reg 8 H drvr_enbls $end
$var reg 56 I digit_all_i $end
$var reg 7 J active_digit $end
$var reg 10 K seg_timer $end
$var reg 7 L active_segments $end
$var reg 1 > d4_o $end
$scope module d $end
$var reg 1 : d(0) $end
$var reg 1 ; d(1) $end
$var reg 1 < d(2) $end
$var reg 1 = d(3) $end
$var reg 1 > d(4) $end
$var reg 1 ? d(5) $end
$var reg 1 @ d(6) $end
$var reg 1 A d(7) $end
$upscope $end
$scope module inst_8 $end
$var reg 1 M i $end
$var reg 1 N dummy $end
$var reg 1 O o_drvr $end
$var reg 1 P enbl $end
$var reg 1 A o $end
$upscope $end
$scope module inst_7 $end
$var reg 1 Q i $end
$var reg 1 R dummy $end
$var reg 1 S o_drvr $end
$var reg 1 T enbl $end
$var reg 1 @ o $end
$upscope $end
$scope module inst_6 $end
$var reg 1 U i $end
$var reg 1 V dummy $end
$var reg 1 W o_drvr $end
$var reg 1 X enbl $end
$var reg 1 ? o $end
$upscope $end
$scope module inst_5 $end
$var reg 1 Y i $end
$var reg 1 Z dummy $end
$var reg 1 [ o_drvr $end
$var reg 1 \ enbl $end
$var reg 1 > o $end
$upscope $end
$scope module inst_4 $end
$var reg 1 ] i $end
$var reg 1 ^ dummy $end
$var reg 1 _ o_drvr $end
$var reg 1 ` enbl $end
$var reg 1 = o $end
$upscope $end
$scope module inst_3 $end
$var reg 1 a i $end
$var reg 1 b dummy $end
$var reg 1 c o_drvr $end
$var reg 1 d enbl $end
$var reg 1 < o $end
$upscope $end
$scope module inst_2 $end
$var reg 1 e i $end
$var reg 1 f dummy $end
$var reg 1 g o_drvr $end
$var reg 1 h enbl $end
$var reg 1 ; o $end
$upscope $end
$scope module inst_1 $end
$var reg 1 i i $end
$var reg 1 j dummy $end
$var reg 1 k o_drvr $end
$var reg 1 l enbl $end
$var reg 1 : o $end
$upscope $end
$scope module inst_0 $end
$var reg 7 J ascii_char_i $end
$var reg 7 F segments_o $end
$upscope $end
$upscope $end
$scope module sw3_inst $end
$var reg 4 # i $end
$var reg 4 8 o $end
$upscope $end
$scope module sw2_inst $end
$var reg 1 ! i $end
$var reg 1 . o $end
$upscope $end
$scope module sw1_inst $end
$var reg 1 $ i $end
$var reg 1 3 o $end
$upscope $end
$upscope $end
$upscope $end

$enddefinitions $end
$dumpvars
0!
0"
b0000 #
0$
z%
z&
z'
z(
z)
z*
z+
z,
z-
0.
z/
z0
z1
z2
03
z4
b0000000 5
z6
z7
b0000 8
b0000000 9
z:
z;
z<
z=
z>
z?
z@
zA
b000 B
0C
0D
b00000001 E
b0000000 F
b0010101 G
b00000000 H
b00000000000000000000000000000000000000000000000000000000 I
b0000000 J
b0000000000 K
b0000000 L
0M
0N
zO
0P
0Q
0R
zS
0T
0U
0V
zW
0X
0Y
0Z
z[
0\
0]
0^
z_
0`
0a
0b
zc
0d
0e
0f
zg
0h
1i
0j
zk
0l
$end
b0111111 F
b00000001 H
b0100000 5
b0100000 9
b1010 #
1!
1.
b1010 8
b0100000 J
1l
b0010101 L
b00101011 H
1k
b0000000 F
b0001010 9
b0000000 L
1:
1X
1`
1h
0g
0_
0W
10
1j
b00000001 H
0h
0`
0X
1+
0?
0=
0;
04
01
06
zW
z_
zg
z;
z=
z?
0(
0*
0,
z4
z1
z6
z(
z*
z,
#10
1"
1D
#20
0"
#30
1"
b1001010100 K
b0101010 G
b00000010 E
b110 B
b00000010 H
0i
1e
0k
1h
0l
zk
1g
0:
00
0j
1;
z:
z0
14
1f
0+
1,
z+
#40
0"
#50
1"
b1001010011 K
#60
0"
#70
1"
b1001010010 K
#80
0"
#90
1"
b1001010001 K
#100
0"
#110
1"
b1001010000 K
#120
0"
#130
1"
b1001001111 K
#140
0"
#150
1"
b1001001110 K
#160
0"
#170
1"
b1001001101 K
#180
0"
#190
1"
b1001001100 K
#200
0"
#210
1"
b1001001011 K
#220
0"
#230
1"
b1001001010 K
#240
0"
#250
1"
b1001001001 K
#260
0"
#270
1"
b1001001000 K
#280
0"
#290
1"
b1001000111 K
#300
0"
#310
1"
b1001000110 K
#320
0"
#330
1"
b1001000101 K
#340
0"
#350
1"
b1001000100 K
#360
0"
#370
1"
b1001000011 K
#380
0"
#390
1"
b1001000010 K
#400
0"
#410
1"
b1001000001 K
#420
0"
#430
1"
b1001000000 K
#440
0"
#450
1"
b1000111111 K
#460
0"
#470
1"
b1000111110 K
#480
0"
#490
1"
b1000111101 K
#500
0"
#510
1"
b1000111100 K
#520
0"
#530
1"
b1000111011 K
#540
0"
#550
1"
b1000111010 K
#560
0"
#570
1"
b1000111001 K
#580
0"
#590
1"
b1000111000 K
#600
0"
#610
1"
b1000110111 K
#620
0"
#630
1"
b1000110110 K
#640
0"
#650
1"
b1000110101 K
#660
0"
#670
1"
b1000110100 K
#680
0"
#690
1"
b1000110011 K
#700
0"
#710
1"
b1000110010 K
#720
0"
#730
1"
b1000110001 K
#740
0"
#750
1"
b1000110000 K
#760
0"
#770
1"
b1000101111 K
#780
0"
#790
1"
b1000101110 K
#800
0"
#810
1"
b1000101101 K
#820
0"
#830
1"
b1000101100 K
#840
0"
#850
1"
b1000101011 K
#860
0"
#870
1"
b1000101010 K
#880
0"
#890
1"
b1000101001 K
#900
0"
#910
1"
b1000101000 K
#920
0"
#930
1"
b1000100111 K
#940
0"
#950
1"
b1000100110 K
#960
0"
#970
1"
b1000100101 K
#980
0"
#990
1"
b1000100100 K
#1000
0"
#1010
1"
b1000100011 K
#1020
0"
#1030
1"
b1000100010 K
#1040
0"
#1050
1"
b1000100001 K
#1060
0"
#1070
1"
b1000100000 K
#1080
0"
#1090
1"
b1000011111 K
#1100
0"
#1110
1"
b1000011110 K
#1120
0"
#1130
1"
b1000011101 K
#1140
0"
#1150
1"
b1000011100 K
#1160
0"
#1170
1"
b1000011011 K
#1180
0"
#1190
1"
b1000011010 K
#1200
0"
#1210
1"
b1000011001 K
#1220
0"
#1230
1"
b1000011000 K
#1240
0"
#1250
1"
b1000010111 K
#1260
0"
#1270
1"
b1000010110 K
#1280
0"
#1290
1"
b1000010101 K
#1300
0"
#1310
1"
b1000010100 K
#1320
0"
#1330
1"
b1000010011 K
#1340
0"
#1350
1"
b1000010010 K
#1360
0"
#1370
1"
b1000010001 K
#1380
0"
#1390
1"
b1000010000 K
#1400
0"
#1410
1"
b1000001111 K
#1420
0"
#1430
1"
b1000001110 K
#1440
0"
#1450
1"
b1000001101 K
#1460
0"
#1470
1"
b1000001100 K
#1480
0"
#1490
1"
b1000001011 K
#1500
0"
#1510
1"
b1000001010 K
#1520
0"
#1530
1"
b1000001001 K
#1540
0"
#1550
1"
b1000001000 K
#1560
0"
#1570
1"
b1000000111 K
#1580
0"
#1590
1"
b1000000110 K
#1600
0"
#1610
1"
b1000000101 K
#1620
0"
#1630
1"
b1000000100 K
#1640
0"
#1650
1"
b1000000011 K
#1660
0"
#1670
1"
b1000000010 K
#1680
0"
#1690
1"
b1000000001 K
#1700
0"
#1710
1"
b1000000000 K
#1720
0"
#1730
1"
b0111111111 K
#1740
0"
#1750
1"
b0111111110 K
#1760
0"
#1770
1"
b0111111101 K
#1780
0"
#1790
1"
b0111111100 K
#1800
0"
#1810
1"
b0111111011 K
#1820
0"
#1830
1"
b0111111010 K
#1840
0"
#1850
1"
b0111111001 K
#1860
0"
#1870
1"
b0111111000 K
#1880
0"
#1890
1"
b0111110111 K
#1900
0"
#1910
1"
b0111110110 K
#1920
0"
#1930
1"
b0111110101 K
#1940
0"
#1950
1"
b0111110100 K
#1960
0"
#1970
1"
b0111110011 K
#1980
0"
#1990
1"
b0111110010 K
#2000
0"
#2010
1"
b0111110001 K
#2020
0"
#2030
1"
b0111110000 K
#2040
0"
#2050
1"
b0111101111 K
#2060
0"
#2070
1"
b0111101110 K
#2080
0"
#2090
1"
b0111101101 K
#2100
0"
#2110
1"
b0111101100 K
#2120
0"
#2130
1"
b0111101011 K
#2140
0"
#2150
1"
b0111101010 K
#2160
0"
#2170
1"
b0111101001 K
#2180
0"
#2190
1"
b0111101000 K
#2200
0"
#2210
1"
b0111100111 K
#2220
0"
#2230
1"
b0111100110 K
#2240
0"
#2250
1"
b0111100101 K
#2260
0"
#2270
1"
b0111100100 K
#2280
0"
#2290
1"
b0111100011 K
#2300
0"
#2310
1"
b0111100010 K
#2320
0"
#2330
1"
b0111100001 K
#2340
0"
#2350
1"
b0111100000 K
#2360
0"
#2370
1"
b0111011111 K
#2380
0"
#2390
1"
b0111011110 K
#2400
0"
#2410
1"
b0111011101 K
#2420
0"
#2430
1"
b0111011100 K
#2440
0"
#2450
1"
b0111011011 K
#2460
0"
#2470
1"
b0111011010 K
#2480
0"
#2490
1"
b0111011001 K
#2500
0"
#2510
1"
b0111011000 K
#2520
0"
#2530
1"
b0111010111 K
#2540
0"
#2550
1"
b0111010110 K
#2560
0"
#2570
1"
b0111010101 K
#2580
0"
#2590
1"
b0111010100 K
#2600
0"
#2610
1"
b0111010011 K
#2620
0"
#2630
1"
b0111010010 K
#2640
0"
#2650
1"
b0111010001 K
#2660
0"
#2670
1"
b0111010000 K
#2680
0"
#2690
1"
b0111001111 K
#2700
0"
#2710
1"
b0111001110 K
#2720
0"
#2730
1"
b0111001101 K
#2740
0"
#2750
1"
b0111001100 K
#2760
0"
#2770
1"
b0111001011 K
#2780
0"
#2790
1"
b0111001010 K
#2800
0"
#2810
1"
b0111001001 K
#2820
0"
#2830
1"
b0111001000 K
#2840
0"
#2850
1"
b0111000111 K
#2860
0"
#2870
1"
b0111000110 K
#2880
0"
#2890
1"
b0111000101 K
#2900
0"
#2910
1"
b0111000100 K
#2920
0"
#2930
1"
b0111000011 K
#2940
0"
#2950
1"
b0111000010 K
#2960
0"
#2970
1"
b0111000001 K
#2980
0"
#2990
1"
b0111000000 K
#3000
0"
#3010
1"
b0110111111 K
#3020
0"
#3030
1"
b0110111110 K
#3040
0"
#3050
1"
b0110111101 K
#3060
0"
#3070
1"
b0110111100 K
#3080
0"
#3090
1"
b0110111011 K
#3100
0"
#3110
1"
b0110111010 K
#3120
0"
#3130
1"
b0110111001 K
#3140
0"
#3150
1"
b0110111000 K
#3160
0"
#3170
1"
b0110110111 K
#3180
0"
#3190
1"
b0110110110 K
#3200
0"
#3210
1"
b0110110101 K
#3220
0"
#3230
1"
b0110110100 K
#3240
0"
#3250
1"
b0110110011 K
#3260
0"
#3270
1"
b0110110010 K
#3280
0"
#3290
1"
b0110110001 K
#3300
0"
#3310
1"
b0110110000 K
#3320
0"
#3330
1"
b0110101111 K
#3340
0"
#3350
1"
b0110101110 K
#3360
0"
#3370
1"
b0110101101 K
#3380
0"
#3390
1"
b0110101100 K
#3400
0"
#3410
1"
b0110101011 K
#3420
0"
#3430
1"
b0110101010 K
#3440
0"
#3450
1"
b0110101001 K
#3460
0"
#3470
1"
b0110101000 K
#3480
0"
#3490
1"
b0110100111 K
#3500
0"
#3510
1"
b0110100110 K
#3520
0"
#3530
1"
b0110100101 K
#3540
0"
#3550
1"
b0110100100 K
#3560
0"
#3570
1"
b0110100011 K
#3580
0"
#3590
1"
b0110100010 K
#3600
0"
#3610
1"
b0110100001 K
#3620
0"
#3630
1"
b0110100000 K
#3640
0"
#3650
1"
b0110011111 K
#3660
0"
#3670
1"
b0110011110 K
#3680
0"
#3690
1"
b0110011101 K
#3700
0"
#3710
1"
b0110011100 K
#3720
0"
#3730
1"
b0110011011 K
#3740
0"
#3750
1"
b0110011010 K
#3760
0"
#3770
1"
b0110011001 K
#3780
0"
#3790
1"
b0110011000 K
#3800
0"
#3810
1"
b0110010111 K
#3820
0"
#3830
1"
b0110010110 K
#3840
0"
#3850
1"
b0110010101 K
#3860
0"
#3870
1"
b0110010100 K
#3880
0"
#3890
1"
b0110010011 K
#3900
0"
#3910
1"
b0110010010 K
#3920
0"
#3930
1"
b0110010001 K
#3940
0"
#3950
1"
b0110010000 K
#3960
0"
#3970
1"
b0110001111 K
#3980
0"
#3990
1"
b0110001110 K
#4000
0"
#4010
1"
b0110001101 K
#4020
0"
#4030
1"
b0110001100 K
#4040
0"
#4050
1"
b0110001011 K
#4060
0"
#4070
1"
b0110001010 K
#4080
0"
#4090
1"
b0110001001 K
#4100
0"
#4110
1"
b0110001000 K
#4120
0"
#4130
1"
b0110000111 K
#4140
0"
#4150
1"
b0110000110 K
#4160
0"
#4170
1"
b0110000101 K
#4180
0"
#4190
1"
b0110000100 K
#4200
0"
#4210
1"
b0110000011 K
#4220
0"
#4230
1"
b0110000010 K
#4240
0"
#4250
1"
b0110000001 K
#4260
0"
#4270
1"
b0110000000 K
#4280
0"
#4290
1"
b0101111111 K
#4300
0"
#4310
1"
b0101111110 K
#4320
0"
#4330
1"
b0101111101 K
#4340
0"
#4350
1"
b0101111100 K
#4360
0"
#4370
1"
b0101111011 K
#4380
0"
#4390
1"
b0101111010 K
#4400
0"
#4410
1"
b0101111001 K
#4420
0"
#4430
1"
b0101111000 K
#4440
0"
#4450
1"
b0101110111 K
#4460
0"
#4470
1"
b0101110110 K
#4480
0"
#4490
1"
b0101110101 K
#4500
0"
#4510
1"
b0101110100 K
#4520
0"
#4530
1"
b0101110011 K
#4540
0"
#4550
1"
b0101110010 K
#4560
0"
#4570
1"
b0101110001 K
#4580
0"
#4590
1"
b0101110000 K
#4600
0"
#4610
1"
b0101101111 K
#4620
0"
#4630
1"
b0101101110 K
#4640
0"
#4650
1"
b0101101101 K
#4660
0"
#4670
1"
b0101101100 K
#4680
0"
#4690
1"
b0101101011 K
#4700
0"
#4710
1"
b0101101010 K
#4720
0"
#4730
1"
b0101101001 K
#4740
0"
#4750
1"
b0101101000 K
#4760
0"
#4770
1"
b0101100111 K
#4780
0"
#4790
1"
b0101100110 K
#4800
0"
#4810
1"
b0101100101 K
#4820
0"
#4830
1"
b0101100100 K
#4840
0"
#4850
1"
b0101100011 K
#4860
0"
#4870
1"
b0101100010 K
#4880
0"
#4890
1"
b0101100001 K
#4900
0"
#4910
1"
b0101100000 K
#4920
0"
#4930
1"
b0101011111 K
#4940
0"
#4950
1"
b0101011110 K
#4960
0"
#4970
1"
b0101011101 K
#4980
0"
#4990
1"
b0101011100 K
#5000
0"
#5010
1"
b0101011011 K
#5020
0"
#5030
1"
b0101011010 K
#5040
0"
#5050
1"
b0101011001 K
#5060
0"
#5070
1"
b0101011000 K
#5080
0"
#5090
1"
b0101010111 K
#5100
0"
#5110
1"
b0101010110 K
#5120
0"
#5130
1"
b0101010101 K
#5140
0"
#5150
1"
b0101010100 K
#5160
0"
#5170
1"
b0101010011 K
#5180
0"
#5190
1"
b0101010010 K
#5200
0"
#5210
1"
b0101010001 K
#5220
0"
#5230
1"
b0101010000 K
#5240
0"
#5250
1"
b0101001111 K
#5260
0"
#5270
1"
b0101001110 K
#5280
0"
#5290
1"
b0101001101 K
#5300
0"
#5310
1"
b0101001100 K
#5320
0"
#5330
1"
b0101001011 K
#5340
0"
#5350
1"
b0101001010 K
#5360
0"
#5370
1"
b0101001001 K
#5380
0"
#5390
1"
b0101001000 K
#5400
0"
#5410
1"
b0101000111 K
#5420
0"
#5430
1"
b0101000110 K
#5440
0"
#5450
1"
b0101000101 K
#5460
0"
#5470
1"
b0101000100 K
#5480
0"
#5490
1"
b0101000011 K
#5500
0"
#5510
1"
b0101000010 K
#5520
0"
#5530
1"
b0101000001 K
#5540
0"
#5550
1"
b0101000000 K
#5560
0"
#5570
1"
b0100111111 K
#5580
0"
#5590
1"
b0100111110 K
#5600
0"
#5610
1"
b0100111101 K
#5620
0"
#5630
1"
b0100111100 K
#5640
0"
#5650
1"
b0100111011 K
#5660
0"
#5670
1"
b0100111010 K
#5680
0"
#5690
1"
b0100111001 K
#5700
0"
#5710
1"
b0100111000 K
#5720
0"
#5730
1"
b0100110111 K
#5740
0"
#5750
1"
b0100110110 K
#5760
0"
#5770
1"
b0100110101 K
#5780
0"
#5790
1"
b0100110100 K
#5800
0"
#5810
1"
b0100110011 K
#5820
0"
#5830
1"
b0100110010 K
#5840
0"
#5850
1"
b0100110001 K
#5860
0"
#5870
1"
b0100110000 K
#5880
0"
#5890
1"
b0100101111 K
#5900
0"
#5910
1"
b0100101110 K
#5920
0"
#5930
1"
b0100101101 K
#5940
0"
#5950
1"
b0100101100 K
#5960
0"
#5970
1"
b0100101011 K
#5980
0"
#5990
1"
b0100101010 K
#6000
0"
#6010
1"
b0100101001 K
#6020
0"
#6030
1"
b0100101000 K
#6040
0"
#6050
1"
b0100100111 K
#6060
0"
#6070
1"
b0100100110 K
#6080
0"
#6090
1"
b0100100101 K
#6100
0"
#6110
1"
b0100100100 K
#6120
0"
#6130
1"
b0100100011 K
#6140
0"
#6150
1"
b0100100010 K
#6160
0"
#6170
1"
b0100100001 K
#6180
0"
#6190
1"
b0100100000 K
#6200
0"
#6210
1"
b0100011111 K
#6220
0"
#6230
1"
b0100011110 K
#6240
0"
#6250
1"
b0100011101 K
#6260
0"
#6270
1"
b0100011100 K
#6280
0"
#6290
1"
b0100011011 K
#6300
0"
#6310
1"
b0100011010 K
#6320
0"
#6330
1"
b0100011001 K
#6340
0"
#6350
1"
b0100011000 K
#6360
0"
#6370
1"
b0100010111 K
#6380
0"
#6390
1"
b0100010110 K
#6400
0"
#6410
1"
b0100010101 K
#6420
0"
#6430
1"
b0100010100 K
#6440
0"
#6450
1"
b0100010011 K
#6460
0"
#6470
1"
b0100010010 K
#6480
0"
#6490
1"
b0100010001 K
#6500
0"
#6510
1"
b0100010000 K
#6520
0"
#6530
1"
b0100001111 K
#6540
0"
#6550
1"
b0100001110 K
#6560
0"
#6570
1"
b0100001101 K
#6580
0"
#6590
1"
b0100001100 K
#6600
0"
#6610
1"
b0100001011 K
#6620
0"
#6630
1"
b0100001010 K
#6640
0"
#6650
1"
b0100001001 K
#6660
0"
#6670
1"
b0100001000 K
#6680
0"
#6690
1"
b0100000111 K
#6700
0"
#6710
1"
b0100000110 K
#6720
0"
#6730
1"
b0100000101 K
#6740
0"
#6750
1"
b0100000100 K
#6760
0"
#6770
1"
b0100000011 K
#6780
0"
#6790
1"
b0100000010 K
#6800
0"
#6810
1"
b0100000001 K
#6820
0"
#6830
1"
b0100000000 K
#6840
0"
#6850
1"
b0011111111 K
#6860
0"
#6870
1"
b0011111110 K
#6880
0"
#6890
1"
b0011111101 K
#6900
0"
#6910
1"
b0011111100 K
#6920
0"
#6930
1"
b0011111011 K
#6940
0"
#6950
1"
b0011111010 K
#6960
0"
#6970
1"
b0011111001 K
#6980
0"
#6990
1"
b0011111000 K
#7000
0"
#7010
1"
b0011110111 K
#7020
0"
#7030
1"
b0011110110 K
#7040
0"
#7050
1"
b0011110101 K
#7060
0"
#7070
1"
b0011110100 K
#7080
0"
#7090
1"
b0011110011 K
#7100
0"
#7110
1"
b0011110010 K
#7120
0"
#7130
1"
b0011110001 K
#7140
0"
#7150
1"
b0011110000 K
#7160
0"
#7170
1"
b0011101111 K
#7180
0"
#7190
1"
b0011101110 K
#7200
0"
#7210
1"
b0011101101 K
#7220
0"
#7230
1"
b0011101100 K
#7240
0"
#7250
1"
b0011101011 K
#7260
0"
#7270
1"
b0011101010 K
#7280
0"
#7290
1"
b0011101001 K
#7300
0"
#7310
1"
b0011101000 K
#7320
0"
#7330
1"
b0011100111 K
#7340
0"
#7350
1"
b0011100110 K
#7360
0"
#7370
1"
b0011100101 K
#7380
0"
#7390
1"
b0011100100 K
#7400
0"
#7410
1"
b0011100011 K
#7420
0"
#7430
1"
b0011100010 K
#7440
0"
#7450
1"
b0011100001 K
#7460
0"
#7470
1"
b0011100000 K
#7480
0"
#7490
1"
b0011011111 K
#7500
0"
#7510
1"
b0011011110 K
#7520
0"
#7530
1"
b0011011101 K
#7540
0"
#7550
1"
b0011011100 K
#7560
0"
#7570
1"
b0011011011 K
#7580
0"
#7590
1"
b0011011010 K
#7600
0"
#7610
1"
b0011011001 K
#7620
0"
#7630
1"
b0011011000 K
#7640
0"
#7650
1"
b0011010111 K
#7660
0"
#7670
1"
b0011010110 K
#7680
0"
#7690
1"
b0011010101 K
#7700
0"
#7710
1"
b0011010100 K
#7720
0"
#7730
1"
b0011010011 K
#7740
0"
#7750
1"
b0011010010 K
#7760
0"
#7770
1"
b0011010001 K
#7780
0"
#7790
1"
b0011010000 K
#7800
0"
#7810
1"
b0011001111 K
#7820
0"
#7830
1"
b0011001110 K
#7840
0"
#7850
1"
b0011001101 K
#7860
0"
#7870
1"
b0011001100 K
#7880
0"
#7890
1"
b0011001011 K
#7900
0"
#7910
1"
b0011001010 K
#7920
0"
#7930
1"
b0011001001 K
#7940
0"
#7950
1"
b0011001000 K
#7960
0"
#7970
1"
b0011000111 K
#7980
0"
#7990
1"
b0011000110 K
#8000
0"
#8010
1"
b0011000101 K
#8020
0"
#8030
1"
b0011000100 K
#8040
0"
#8050
1"
b0011000011 K
#8060
0"
#8070
1"
b0011000010 K
#8080
0"
#8090
1"
b0011000001 K
#8100
0"
#8110
1"
b0011000000 K
#8120
0"
#8130
1"
b0010111111 K
#8140
0"
#8150
1"
b0010111110 K
#8160
0"
#8170
1"
b0010111101 K
#8180
0"
#8190
1"
b0010111100 K
#8200
0"
#8210
1"
b0010111011 K
#8220
0"
#8230
1"
b0010111010 K
#8240
0"
#8250
1"
b0010111001 K
#8260
0"
#8270
1"
b0010111000 K
#8280
0"
#8290
1"
b0010110111 K
#8300
0"
#8310
1"
b0010110110 K
#8320
0"
#8330
1"
b0010110101 K
#8340
0"
#8350
1"
b0010110100 K
#8360
0"
#8370
1"
b0010110011 K
#8380
0"
#8390
1"
b0010110010 K
#8400
0"
#8410
1"
b0010110001 K
#8420
0"
#8430
1"
b0010110000 K
#8440
0"
#8450
1"
b0010101111 K
#8460
0"
#8470
1"
b0010101110 K
#8480
0"
#8490
1"
b0010101101 K
#8500
0"
#8510
1"
b0010101100 K
#8520
0"
#8530
1"
b0010101011 K
#8540
0"
#8550
1"
b0010101010 K
#8560
0"
#8570
1"
b0010101001 K
#8580
0"
#8590
1"
b0010101000 K
#8600
0"
#8610
1"
b0010100111 K
#8620
0"
#8630
1"
b0010100110 K
#8640
0"
#8650
1"
b0010100101 K
#8660
0"
#8670
1"
b0010100100 K
#8680
0"
#8690
1"
b0010100011 K
#8700
0"
#8710
1"
b0010100010 K
#8720
0"
#8730
1"
b0010100001 K
#8740
0"
#8750
1"
b0010100000 K
#8760
0"
#8770
1"
b0010011111 K
#8780
0"
#8790
1"
b0010011110 K
#8800
0"
#8810
1"
b0010011101 K
#8820
0"
#8830
1"
b0010011100 K
#8840
0"
#8850
1"
b0010011011 K
#8860
0"
#8870
1"
b0010011010 K
#8880
0"
#8890
1"
b0010011001 K
#8900
0"
#8910
1"
b0010011000 K
#8920
0"
#8930
1"
b0010010111 K
#8940
0"
#8950
1"
b0010010110 K
#8960
0"
#8970
1"
b0010010101 K
#8980
0"
#8990
1"
b0010010100 K
#9000
0"
#9010
1"
b0010010011 K
#9020
0"
#9030
1"
b0010010010 K
#9040
0"
#9050
1"
b0010010001 K
#9060
0"
#9070
1"
b0010010000 K
#9080
0"
#9090
1"
b0010001111 K
#9100
0"
#9110
1"
b0010001110 K
#9120
0"
#9130
1"
b0010001101 K
#9140
0"
#9150
1"
b0010001100 K
#9160
0"
#9170
1"
b0010001011 K
#9180
0"
#9190
1"
b0010001010 K
#9200
0"
#9210
1"
b0010001001 K
#9220
0"
#9230
1"
b0010001000 K
#9240
0"
#9250
1"
b0010000111 K
#9260
0"
#9270
1"
b0010000110 K
#9280
0"
#9290
1"
b0010000101 K
#9300
0"
#9310
1"
b0010000100 K
#9320
0"
#9330
1"
b0010000011 K
#9340
0"
#9350
1"
b0010000010 K
#9360
0"
#9370
1"
b0010000001 K
#9380
0"
#9390
1"
b0010000000 K
#9400
0"
#9410
1"
b0001111111 K
#9420
0"
#9430
1"
b0001111110 K
#9440
0"
#9450
1"
b0001111101 K
#9460
0"
#9470
1"
b0001111100 K
#9480
0"
#9490
1"
b0001111011 K
#9500
0"
#9510
1"
b0001111010 K
#9520
0"
#9530
1"
b0001111001 K
#9540
0"
#9550
1"
b0001111000 K
#9560
0"
#9570
1"
b0001110111 K
#9580
0"
#9590
1"
b0001110110 K
#9600
0"
#9610
1"
b0001110101 K
#9620
0"
#9630
1"
b0001110100 K
#9640
0"
#9650
1"
b0001110011 K
#9660
0"
#9670
1"
b0001110010 K
#9680
0"
#9690
1"
b0001110001 K
#9700
0"
#9710
1"
b0001110000 K
#9720
0"
#9730
1"
b0001101111 K
#9740
0"
#9750
1"
b0001101110 K
#9760
0"
#9770
1"
b0001101101 K
#9780
0"
#9790
1"
b0001101100 K
#9800
0"
#9810
1"
b0001101011 K
#9820
0"
#9830
1"
b0001101010 K
#9840
0"
#9850
1"
b0001101001 K
#9860
0"
#9870
1"
b0001101000 K
#9880
0"
#9890
1"
b0001100111 K
#9900
0"
#9910
1"
b0001100110 K
#9920
0"
#9930
1"
b0001100101 K
#9940
0"
#9950
1"
b0001100100 K
#9960
0"
#9970
1"
b0001100011 K
#9980
0"
#9990
1"
b0001100010 K
#10000
0"
#10010
1"
b0001100001 K
#10020
0"
#10030
1"
b0001100000 K
#10040
0"
#10050
1"
b0001011111 K
#10060
0"
#10070
1"
b0001011110 K
#10080
0"
#10090
1"
b0001011101 K
#10100
0"
#10110
1"
b0001011100 K
#10120
0"
#10130
1"
b0001011011 K
#10140
0"
#10150
1"
b0001011010 K
#10160
0"
#10170
1"
b0001011001 K
#10180
0"
#10190
1"
b0001011000 K
#10200
0"
#10210
1"
b0001010111 K
#10220
0"
#10230
1"
b0001010110 K
#10240
0"
#10250
1"
b0001010101 K
#10260
0"
#10270
1"
b0001010100 K
#10280
0"
#10290
1"
b0001010011 K
#10300
0"
#10310
1"
b0001010010 K
#10320
0"
#10330
1"
b0001010001 K
#10340
0"
#10350
1"
b0001010000 K
#10360
0"
#10370
1"
b0001001111 K
#10380
0"
#10390
1"
b0001001110 K
#10400
0"
#10410
1"
b0001001101 K
#10420
0"
#10430
1"
b0001001100 K
#10440
0"
#10450
1"
b0001001011 K
#10460
0"
#10470
1"
b0001001010 K
#10480
0"
#10490
1"
b0001001001 K
#10500
0"
#10510
1"
b0001001000 K
#10520
0"
#10530
1"
b0001000111 K
#10540
0"
#10550
1"
b0001000110 K
#10560
0"
#10570
1"
b0001000101 K
#10580
0"
#10590
1"
b0001000100 K
#10600
0"
#10610
1"
b0001000011 K
#10620
0"
#10630
1"
b0001000010 K
#10640
0"
#10650
1"
b0001000001 K
#10660
0"
#10670
1"
b0001000000 K
#10680
0"
#10690
1"
b0000111111 K
#10700
0"
#10710
1"
b0000111110 K
#10720
0"
#10730
1"
b0000111101 K
#10740
0"
#10750
1"
b0000111100 K
#10760
0"
#10770
1"
b0000111011 K
#10780
0"
#10790
1"
b0000111010 K
#10800
0"
#10810
1"
b0000111001 K
#10820
0"
#10830
1"
b0000111000 K
#10840
0"
#10850
1"
b0000110111 K
#10860
0"
#10870
1"
b0000110110 K
#10880
0"
#10890
1"
b0000110101 K
#10900
0"
#10910
1"
b0000110100 K
#10920
0"
#10930
1"
b0000110011 K
#10940
0"
#10950
1"
b0000110010 K
#10960
0"
#10970
1"
b0000110001 K
#10980
0"
#10990
1"
b0000110000 K
#11000
0"
#11010
1"
b0000101111 K
#11020
0"
#11030
1"
b0000101110 K
#11040
0"
#11050
1"
b0000101101 K
#11060
0"
#11070
1"
b0000101100 K
#11080
0"
#11090
1"
b0000101011 K
#11100
0"
#11110
1"
b0000101010 K
#11120
0"
#11130
1"
b0000101001 K
#11140
0"
#11150
1"
b0000101000 K
#11160
0"
#11170
1"
b0000100111 K
#11180
0"
#11190
1"
b0000100110 K
#11200
0"
#11210
1"
b0000100101 K
#11220
0"
#11230
1"
b0000100100 K
#11240
0"
#11250
1"
b0000100011 K
#11260
0"
